{
	"isLoggedIn": true,
	"isAdmin": true,
	"user": {
		"name": "brian.chapman@aawhere.com",
		"email": "brian.chapman@aawhere.com"
	},
	"links": {
		"logout": "http://dev.trailnetwork.com/_ah/logout?continue=https://www.google.com/accounts/Logout%3Fcontinue%3Dhttps://appengine.google.com/_ah/logout%253Fcontinue%253Dhttp://dev.trailnetwork.com/person/5658744436293632/all%26service%3Dah"
	}
}